-------------------------------------------------------------------------------
Test set: com.cerotid.project.SeleniumTest.AppTest
-------------------------------------------------------------------------------
Tests run: 0, Failures: 0, Errors: 0, Skipped: 0, Time elapsed: 0.937 sec
